{
  "project_info": {
    "project_number": "217818991650",
    "firebase_url": "https://whatsapp-8bb00-default-rtdb.firebaseio.com",
    "project_id": "whatsapp-8bb00",
    "storage_bucket": "whatsapp-8bb00.appspot.com"
  },
  "client": [
    {
      "client_info": {
        "mobilesdk_app_id": "1:217818991650:android:e2a646aef84d3caa68ce7b",
        "android_client_info": {
          "package_name": "cat.itb.whatsapp"
        }
      },
      "oauth_client": [
        {
          "client_id": "217818991650-ejedrnam897rbbljg5plctt2u89f8bae.apps.googleusercontent.com",
          "client_type": 1,
          "android_info": {
            "package_name": "cat.itb.whatsapp",
            "certificate_hash": "2a75d1a4e85e3e2524e2efee1953810dba769d94"
          }
        },
        {
          "client_id": "217818991650-3shp3dfp2ta4kenbr4vu8fah3bu6hcos.apps.googleusercontent.com",
          "client_type": 3
        }
      ],
      "api_key": [
        {
          "current_key": "AIzaSyBCNoZ0DvstXsFEawi7d9IpuT32iAac6Jw"
        }
      ],
      "services": {
        "appinvite_service": {
          "other_platform_oauth_client": [
            {
              "client_id": "217818991650-3shp3dfp2ta4kenbr4vu8fah3bu6hcos.apps.googleusercontent.com",
              "client_type": 3
            }
          ]
        }
      }
    }
  ],
  "configuration_version": "1"
}